^C:\USERS\RUSNAB99\SOURCE\REPOS\INTRO 124D\INTRO 124D\SOURCE.CPP
D:\IDES\VISUALSTUDIO\VC\TOOLS\MSVC\14.14.26428\BIN\HOSTX86\X86\1049\CLUI.DLL
C:\WINDOWS\GLOBALIZATION\SORTING\SORTDEFAULT.NLS
C:\WINDOWS\SYSTEM32\TZRES.DLL
D:\IDES\VISUALSTUDIO\VC\TOOLS\MSVC\14.14.26428\INCLUDE\IOSTREAM
D:\IDES\VISUALSTUDIO\VC\TOOLS\MSVC\14.14.26428\INCLUDE\ISTREAM
D:\IDES\VISUALSTUDIO\VC\TOOLS\MSVC\14.14.26428\INCLUDE\OSTREAM
D:\IDES\VISUALSTUDIO\VC\TOOLS\MSVC\14.14.26428\INCLUDE\IOS
D:\IDES\VISUALSTUDIO\VC\TOOLS\MSVC\14.14.26428\INCLUDE\XLOCNUM
D:\IDES\VISUALSTUDIO\VC\TOOLS\MSVC\14.14.26428\INCLUDE\CLIMITS
D:\IDES\VISUALSTUDIO\VC\TOOLS\MSVC\14.14.26428\INCLUDE\YVALS.H
D:\IDES\VISUALSTUDIO\VC\TOOLS\MSVC\14.14.26428\INCLUDE\XKEYCHECK.H
D:\IDES\VISUALSTUDIO\VC\TOOLS\MSVC\14.14.26428\INCLUDE\CRTDEFS.H
D:\IDES\VISUALSTUDIO\VC\TOOLS\MSVC\14.14.26428\INCLUDE\VCRUNTIME.H
D:\IDES\VISUALSTUDIO\VC\TOOLS\MSVC\14.14.26428\INCLUDE\SAL.H
D:\IDES\VISUALSTUDIO\VC\TOOLS\MSVC\14.14.26428\INCLUDE\CONCURRENCYSAL.H
D:\IDES\VISUALSTUDIO\VC\TOOLS\MSVC\14.14.26428\INCLUDE\VADEFS.H
D:\WINDOWS KITS\10\INCLUDE\10.0.17134.0\UCRT\CORECRT.H
D:\IDES\VISUALSTUDIO\VC\TOOLS\MSVC\14.14.26428\INCLUDE\USE_ANSI.H
D:\IDES\VISUALSTUDIO\VC\TOOLS\MSVC\14.14.26428\INCLUDE\LIMITS.H
D:\IDES\VISUALSTUDIO\VC\TOOLS\MSVC\14.14.26428\INCLUDE\CMATH
D:\IDES\VISUALSTUDIO\VC\TOOLS\MSVC\14.14.26428\INCLUDE\CSTDLIB
D:\WINDOWS KITS\10\INCLUDE\10.0.17134.0\UCRT\STDLIB.H
D:\WINDOWS KITS\10\INCLUDE\10.0.17134.0\UCRT\CORECRT_MALLOC.H
D:\WINDOWS KITS\10\INCLUDE\10.0.17134.0\UCRT\CORECRT_SEARCH.H
D:\WINDOWS KITS\10\INCLUDE\10.0.17134.0\UCRT\STDDEF.H
D:\WINDOWS KITS\10\INCLUDE\10.0.17134.0\UCRT\CORECRT_WSTDLIB.H
D:\WINDOWS KITS\10\INCLUDE\10.0.17134.0\UCRT\MATH.H
D:\WINDOWS KITS\10\INCLUDE\10.0.17134.0\UCRT\CORECRT_MATH.H
D:\IDES\VISUALSTUDIO\VC\TOOLS\MSVC\14.14.26428\INCLUDE\XTGMATH.H
D:\IDES\VISUALSTUDIO\VC\TOOLS\MSVC\14.14.26428\INCLUDE\XTR1COMMON
D:\IDES\VISUALSTUDIO\VC\TOOLS\MSVC\14.14.26428\INCLUDE\CSTDIO
D:\WINDOWS KITS\10\INCLUDE\10.0.17134.0\UCRT\STDIO.H
D:\WINDOWS KITS\10\INCLUDE\10.0.17134.0\UCRT\CORECRT_WSTDIO.H
D:\WINDOWS KITS\10\INCLUDE\10.0.17134.0\UCRT\CORECRT_STDIO_CONFIG.H
D:\IDES\VISUALSTUDIO\VC\TOOLS\MSVC\14.14.26428\INCLUDE\STREAMBUF
D:\IDES\VISUALSTUDIO\VC\TOOLS\MSVC\14.14.26428\INCLUDE\XIOSBASE
D:\IDES\VISUALSTUDIO\VC\TOOLS\MSVC\14.14.26428\INCLUDE\XLOCALE
D:\IDES\VISUALSTUDIO\VC\TOOLS\MSVC\14.14.26428\INCLUDE\CSTRING
D:\WINDOWS KITS\10\INCLUDE\10.0.17134.0\UCRT\STRING.H
D:\WINDOWS KITS\10\INCLUDE\10.0.17134.0\UCRT\CORECRT_MEMORY.H
D:\WINDOWS KITS\10\INCLUDE\10.0.17134.0\UCRT\CORECRT_MEMCPY_S.H
D:\WINDOWS KITS\10\INCLUDE\10.0.17134.0\UCRT\ERRNO.H
D:\IDES\VISUALSTUDIO\VC\TOOLS\MSVC\14.14.26428\INCLUDE\VCRUNTIME_STRING.H
D:\WINDOWS KITS\10\INCLUDE\10.0.17134.0\UCRT\CORECRT_WSTRING.H
D:\IDES\VISUALSTUDIO\VC\TOOLS\MSVC\14.14.26428\INCLUDE\STDEXCEPT
D:\IDES\VISUALSTUDIO\VC\TOOLS\MSVC\14.14.26428\INCLUDE\EXCEPTION
D:\IDES\VISUALSTUDIO\VC\TOOLS\MSVC\14.14.26428\INCLUDE\TYPE_TRAITS
D:\IDES\VISUALSTUDIO\VC\TOOLS\MSVC\14.14.26428\INCLUDE\XSTDDEF
D:\IDES\VISUALSTUDIO\VC\TOOLS\MSVC\14.14.26428\INCLUDE\CSTDDEF
D:\IDES\VISUALSTUDIO\VC\TOOLS\MSVC\14.14.26428\INCLUDE\INITIALIZER_LIST
D:\WINDOWS KITS\10\INCLUDE\10.0.17134.0\UCRT\MALLOC.H
D:\IDES\VISUALSTUDIO\VC\TOOLS\MSVC\14.14.26428\INCLUDE\VCRUNTIME_EXCEPTION.H
D:\IDES\VISUALSTUDIO\VC\TOOLS\MSVC\14.14.26428\INCLUDE\EH.H
D:\WINDOWS KITS\10\INCLUDE\10.0.17134.0\UCRT\CORECRT_TERMINATE.H
D:\IDES\VISUALSTUDIO\VC\TOOLS\MSVC\14.14.26428\INCLUDE\XSTRING
D:\IDES\VISUALSTUDIO\VC\TOOLS\MSVC\14.14.26428\INCLUDE\XMEMORY0
D:\IDES\VISUALSTUDIO\VC\TOOLS\MSVC\14.14.26428\INCLUDE\CSTDINT
D:\IDES\VISUALSTUDIO\VC\TOOLS\MSVC\14.14.26428\INCLUDE\STDINT.H
D:\IDES\VISUALSTUDIO\VC\TOOLS\MSVC\14.14.26428\INCLUDE\LIMITS
D:\IDES\VISUALSTUDIO\VC\TOOLS\MSVC\14.14.26428\INCLUDE\YMATH.H
D:\IDES\VISUALSTUDIO\VC\TOOLS\MSVC\14.14.26428\INCLUDE\CFLOAT
D:\WINDOWS KITS\10\INCLUDE\10.0.17134.0\UCRT\FLOAT.H
D:\IDES\VISUALSTUDIO\VC\TOOLS\MSVC\14.14.26428\INCLUDE\CWCHAR
D:\WINDOWS KITS\10\INCLUDE\10.0.17134.0\UCRT\WCHAR.H
D:\WINDOWS KITS\10\INCLUDE\10.0.17134.0\UCRT\CORECRT_WCONIO.H
D:\WINDOWS KITS\10\INCLUDE\10.0.17134.0\UCRT\CORECRT_WCTYPE.H
D:\WINDOWS KITS\10\INCLUDE\10.0.17134.0\UCRT\CORECRT_WDIRECT.H
D:\WINDOWS KITS\10\INCLUDE\10.0.17134.0\UCRT\CORECRT_WIO.H
D:\WINDOWS KITS\10\INCLUDE\10.0.17134.0\UCRT\CORECRT_SHARE.H
D:\WINDOWS KITS\10\INCLUDE\10.0.17134.0\UCRT\CORECRT_WPROCESS.H
D:\WINDOWS KITS\10\INCLUDE\10.0.17134.0\UCRT\CORECRT_WTIME.H
D:\WINDOWS KITS\10\INCLUDE\10.0.17134.0\UCRT\SYS\STAT.H
D:\WINDOWS KITS\10\INCLUDE\10.0.17134.0\UCRT\SYS\TYPES.H
D:\IDES\VISUALSTUDIO\VC\TOOLS\MSVC\14.14.26428\INCLUDE\NEW
D:\IDES\VISUALSTUDIO\VC\TOOLS\MSVC\14.14.26428\INCLUDE\VCRUNTIME_NEW.H
D:\IDES\VISUALSTUDIO\VC\TOOLS\MSVC\14.14.26428\INCLUDE\XUTILITY
D:\IDES\VISUALSTUDIO\VC\TOOLS\MSVC\14.14.26428\INCLUDE\UTILITY
D:\IDES\VISUALSTUDIO\VC\TOOLS\MSVC\14.14.26428\INCLUDE\IOSFWD
D:\WINDOWS KITS\10\INCLUDE\10.0.17134.0\UCRT\CRTDBG.H
D:\IDES\VISUALSTUDIO\VC\TOOLS\MSVC\14.14.26428\INCLUDE\VCRUNTIME_NEW_DEBUG.H
D:\IDES\VISUALSTUDIO\VC\TOOLS\MSVC\14.14.26428\INCLUDE\XATOMIC0.H
D:\IDES\VISUALSTUDIO\VC\TOOLS\MSVC\14.14.26428\INCLUDE\INTRIN0.H
D:\IDES\VISUALSTUDIO\VC\TOOLS\MSVC\14.14.26428\INCLUDE\TYPEINFO
D:\IDES\VISUALSTUDIO\VC\TOOLS\MSVC\14.14.26428\INCLUDE\VCRUNTIME_TYPEINFO.H
D:\IDES\VISUALSTUDIO\VC\TOOLS\MSVC\14.14.26428\INCLUDE\XLOCINFO
D:\IDES\VISUALSTUDIO\VC\TOOLS\MSVC\14.14.26428\INCLUDE\XLOCINFO.H
D:\WINDOWS KITS\10\INCLUDE\10.0.17134.0\UCRT\CTYPE.H
D:\WINDOWS KITS\10\INCLUDE\10.0.17134.0\UCRT\LOCALE.H
D:\IDES\VISUALSTUDIO\VC\TOOLS\MSVC\14.14.26428\INCLUDE\MEMORY
D:\IDES\VISUALSTUDIO\VC\TOOLS\MSVC\14.14.26428\INCLUDE\XMEMORY
D:\IDES\VISUALSTUDIO\VC\TOOLS\MSVC\14.14.26428\INCLUDE\XFACET
D:\IDES\VISUALSTUDIO\VC\TOOLS\MSVC\14.14.26428\INCLUDE\SYSTEM_ERROR
D:\IDES\VISUALSTUDIO\VC\TOOLS\MSVC\14.14.26428\INCLUDE\CERRNO
D:\IDES\VISUALSTUDIO\VC\TOOLS\MSVC\14.14.26428\INCLUDE\XCALL_ONCE.H
D:\IDES\VISUALSTUDIO\VC\TOOLS\MSVC\14.14.26428\INCLUDE\XERRC.H
D:\WINDOWS KITS\10\INCLUDE\10.0.17134.0\UCRT\SHARE.H
